com/assignment/stepdefinitions/asg1.class
com/assignment/utilities/Driver.class
com/assignment/utilities/BrowserUtils.class
com/assignment/utilities/ConfigurationRW.class
com/assignment/utilities/ConfigurationReader.class
com/assignment/runners/FailedTestRunner.class
com/assignment/runners/CukesRunner.class
com/assignment/utilities/BrowserUtils$1.class
